
setup_vision = {
	if = {
		limit = { exists = yes }
		
		set_country_flag = init_vision
		#Main Cannorian except Escann and Deepwoods
		if = {
			limit = {
				capital_scope = {
					continent = europe
				}
				NOT = {
					capital_scope = {
						superregion = deepwoods_superregion
					}
				}
				NOT = {
					is_adventurer = yes
					monstrous_culture = yes
				}
			}
			
			#Discover civilized Cannor
			western_cannor_superregion = {
				discover_country = ROOT
			}
			gerudia_superregion = {
				limit = {
					NOT = {
						area = gullmork_area
						area = gifrbygd_area
						area = zeindalr_area
						area = southern_giants_tears_area
						area = vrorenwall_area
						province_id = 988
						province_id = 989
					}
				}
				discover_country = ROOT
			}
			daravans_folly_region = {
				discover_country = ROOT
			}
			dostanor_region = {
				discover_country = ROOT
			}
			1976 = {
				discover_country = ROOT
			}
			1977 = {
				discover_country = ROOT
			}
			1919 = {
				discover_country = ROOT
			}
			4157 = {
				discover_country = ROOT
			}
			4321 = {
				discover_country = ROOT
			}
			4160 = {
				discover_country = ROOT
			}
			4168 = {
				discover_country = ROOT
			}
			4161 = {
				discover_country = ROOT
			}
			4167 = {
				discover_country = ROOT
			}
			4162 = {
				discover_country = ROOT
			}
			6553 = {
				discover_country = ROOT
			}
			4155 = {
				discover_country = ROOT
			}
			6168 = {
				discover_country = ROOT
			}
			1250 = {
				discover_country = ROOT
			}
			1260 = {
				discover_country = ROOT
			}
			4146 = {
				discover_country = ROOT
			}
			4177 = {
				discover_country = ROOT
			}
			2000 = {
				discover_country = ROOT
			}
			2001 = {
				discover_country = ROOT
			}
			2471 = {
				discover_country = ROOT
			}
			
			#discover cannorian seas
			westcoast_region = {
				discover_country = ROOT
			}
			dameshead_sea_region = {
				discover_country = ROOT
			}
			giants_grave_sea_region = {
				discover_country = ROOT
			}
			#bit of reavers sea and bit of frozen thaw
			1281 = {
				discover_country = ROOT
			}
			1320 = {
				discover_country = ROOT
			}
			1476 = {
				discover_country = ROOT
			}
			1321 = {
				discover_country = ROOT
			}
			1324 = {
				discover_country = ROOT
			}
			1290 = {
				discover_country = ROOT
			}
			1436 = {
				discover_country = ROOT
			}
			
			#Discover civilized divenhal
			ourdia_region = {
				discover_country = ROOT
			}
			akasik_region = {
				discover_country = ROOT
			}
			kheterata_region = {
				discover_country = ROOT
			}
			bahar_region = {
				discover_country = ROOT
			}
			harpy_hills_region = {
				limit = {
					NOT = {
						area = firanyalen_area
						area = misharallen_area
					}
				}
				discover_country = ROOT
			}
			bulwar_proper_region = {
				discover_country = ROOT
			}
			far_bulwar_region = {
				limit = {
					NOT = {
						area = garpix_zokka_area
						area = eastern_krahway_area
						province_id = 681
						province_id = 3197
					}
				}
				discover_country = ROOT
			}
			4124 = {
				discover_country = ROOT
			}
			1891 = {
				discover_country = ROOT
			}
			1920 = {
				discover_country = ROOT
			}
			1648 = {
				discover_country = ROOT
			}
			4178 = {
				discover_country = ROOT
			}
			571 = {	#Zokka's capital
				undiscover_country = ROOT
			}
			
			divenhal_sea_region = {
				discover_country = ROOT
			}
			
			
			#undiscover kobold underground
			if = {
				limit = {
					NOT = { culture_group = kobold }
				}
				4160 = {
					undiscover_country = ROOT
				}
				185 = {
					undiscover_country = ROOT
				}
				186 = {
					undiscover_country = ROOT
				}
				4646 = {
					undiscover_country = ROOT
				}
				dragondepth_area = {
					undiscover_country = ROOT
				}
			}
			
			#undiscover far isle and lonely isle
			1 = {
				undiscover_country = ROOT
			}
			lonely_isle_area = {
				undiscover_country = ROOT
			}
			1001 = { #Lonely Isle
				undiscover_country = ROOT
			}
			
			#discover far isle nearby if venail
			if = {
				limit = {
					tag = A21
				}
				1482 = {
					discover_country = ROOT
				}
				1566 = {
					discover_country = ROOT
				}
				1 = {
					discover_country = ROOT
				}
			}
			#Gerudians undiscover some of farther Bulwar
			if = {
				limit = {
					capital_scope = {
						superregion = gerudia_superregion
					}
				}
				
				far_bulwar_region = {
					undiscover_country = ROOT
				}
				4124 = {
					undiscover_country = ROOT
				}
				vrorenwall_area = {
					discover_country = ROOT
				}
			}
			
		}

		#Gerudian Trolls only know Gerudia
		else_if = {
			limit = {
				capital_scope = {
					superregion = gerudia_superregion
				}
				culture_is_troll = yes
			}
			
			gerudia_superregion = {
				discover_country = ROOT
			}
			giants_grave_sea_region = {
				discover_country = ROOT
			}
			1324 = {
				discover_country = ROOT
			}
			1436 = {
				discover_country = ROOT
			}
			1321 = {
				discover_country = ROOT
			}
			1250 = {
				discover_country = ROOT
			}
			1251 = {
				discover_country = ROOT
			}
			1260 = {
				discover_country = ROOT
			}
			4146 = {
				discover_country = ROOT
			}
			4177 = {
				discover_country = ROOT
			}
			1885 = {
				discover_country = ROOT
			}
			2000 = {
				discover_country = ROOT
			}
			2001 = {
				discover_country = ROOT
			}
			2471 = {
				discover_country = ROOT
			}
		}
		
		#North Sarhal
		if = {
			limit = {
				OR = {
					capital_scope = {
						superregion = bulwar_superregion
					}
					capital_scope = {
						region = kheterata_region
					}
					capital_scope = {
						region = akasik_region
					}
					capital_scope = {
						region = west_salahad_region
					}
					capital_scope = {
						region = ourdia_region
					}
				}
				NOT = { tag = R03 } #Davharral
				NOT = { tag = U12 } #Oubbligschild
			}
			
			
			#Discover civilized divenhal
			bulwar_superregion = {
				discover_country = ROOT
			}
			north_salahad_superregion = {
				limit = {
					NOT = {
						area = salahad_islands_area
					}
				}
				discover_country = ROOT
			}
			ourdia_region = {
				discover_country = ROOT
			}
		
			seghdihr_area = {
				discover_country = ROOT
			}
			verkal_gulan_area = {
				discover_country = ROOT
			}
			#bulwar and salahad lakes
			1891 = {
				discover_country = ROOT
			}
			1920 = {
				discover_country = ROOT
			}
			1921 = {
				discover_country = ROOT
			}
			1648 = {
				discover_country = ROOT
			}
			1922 = {
				discover_country = ROOT
			}
			4178 = {
				discover_country = ROOT
			}
			3610 = {
				discover_country = ROOT
			}
			3611 = {
				discover_country = ROOT
			}
			
			#salahadesi deserts
			1793 = {
				discover_country = ROOT
			}
			1794 = {
				discover_country = ROOT
			}
			1795 = {
				discover_country = ROOT
			}
			3190 = {
				discover_country = ROOT
			}
			3191 = {
				discover_country = ROOT
			}
			6109 = {
				discover_country = ROOT
			}
			6108 = {
				discover_country = ROOT
			}
			6106 = {
				discover_country = ROOT
			}
			6105 = {
				discover_country = ROOT
			}
			3198 = { 
				discover_country = ROOT
			}
			3199 = { 
				discover_country = ROOT
			}
			3200 = { 
				discover_country = ROOT
			}
			3201 = { 
				discover_country = ROOT
			}
			
			divenhal_sea_region = {
				discover_country = ROOT
			}
			
			
			#discover southern cannorian
			ourdia_region = {
				discover_country = ROOT
			}
			businor_region = {
				discover_country = ROOT
			}
			the_borders_region = {
				discover_country = ROOT
			}
			esmaria_region = {
				discover_country = ROOT
			}
			east_dameshead_region = {
				discover_country = ROOT
			}
			west_dameshead_region = {
				discover_country = ROOT
			}
			lencenor_region = {
				discover_country = ROOT
			}
			small_country_region = {
				discover_country = ROOT
			}
			damescrown_region = {
				discover_country = ROOT
			}
			iochand_area = {
				discover_country = ROOT
			}
			
			dameshead_sea_region = {
				discover_country = ROOT
			}
			westcoast_region = {
				discover_country = ROOT
			}
			4162 = {
				discover_country = ROOT
			}
			6553 = {
				discover_country = ROOT
			}
			4167 = {
				discover_country = ROOT
			}
			4157 = {
				discover_country = ROOT
			}
			4321 = {
				discover_country = ROOT
			}
			1976 = {
				discover_country = ROOT
			}
			1919 = {
				discover_country = ROOT
			}
			
			4367 = {	#Rahen
				undiscover_country = ROOT
			}
			6601 = {
				undiscover_country = ROOT
			}
			#Kheterata vision of Sarhal
			if = {
				limit = {
					OR = {
						tag = U01
						tag = U02
					}
				}
				khetapera_region = {
					discover_country = ROOT
				}
				fangaula_superregion = {
					discover_country = ROOT
				}
				horashesh_region = {
					discover_country = ROOT
				}
				gol_region = {
					discover_country = ROOT
				}
				#coast
				1279 = {
					discover_country = ROOT
				}
				1468 = {
					discover_country = ROOT
				}
				1467 = {
					discover_country = ROOT
				}
				#wastelands
				5778 = {
					discover_country = ROOT
				}
				5717 = {
					discover_country = ROOT
				}
				6107 = {
					discover_country = ROOT
				}
				6115 = {
					discover_country = ROOT
				}
				6114 = {
					discover_country = ROOT
				}
				6113 = {
					discover_country = ROOT
				}
				6112 = {
					discover_country = ROOT
				}
				6120 = {
					discover_country = ROOT
				}
				1649 = {
					discover_country = ROOT
				}
				1650 = {
					discover_country = ROOT
				}
				1908 = {
					discover_country = ROOT
				}
				3198 = { 
					discover_country = ROOT
				}
				3199 = { 
					discover_country = ROOT
				}
				3200 = { 
					discover_country = ROOT
				}
				3201 = { 
					discover_country = ROOT
				}
			}
			# Crathanor area
			if = {
				limit = {
					capital_scope = {
						area = crathanor_area
					}
				}
				dostanor_region = {
					discover_country = ROOT
				}
				daravans_folly_region = {
					discover_country = ROOT
				}
			}
		}

		#Gol
		if = {
			limit = {
				capital_scope = {
					region = gol_region
				}
			}
			
			
			#Discover Salad and Middle Sarhal
			khetapera_region = {
				discover_country = ROOT
			}
			horashesh_region = {
				discover_country = ROOT
			}
			gol_region = {
				discover_country = ROOT
			}
			gazraak_region = {
				discover_country = ROOT
			}
			kubaci_region = {
				discover_country = ROOT
			}
			akasik_region = {
				discover_country = ROOT
			}
			janama_region = {
				discover_country = ROOT
			}
			dao_nako_region = {
				discover_country = ROOT
			}
			west_salahad_region = {
				limit = {
					NOT = {
						area = salahad_islands_area
					}
				}
				discover_country = ROOT
			}
			kheterata_region = {
				discover_country = ROOT
			}
			bulwar_proper_region = {
				discover_country = ROOT
			}
			far_bulwar_region = {
				discover_country = ROOT
			}
			far_salahad_region = {
				discover_country = ROOT
			}
			6105 = { 
				discover_country = ROOT
			}
			1794 = { 
				discover_country = ROOT
			}
			1793 = { 
				discover_country = ROOT
			}
			6108 = { 
				discover_country = ROOT
			}
			6107 = { 
				discover_country = ROOT
			}
			6106 = { 
				discover_country = ROOT
			}
			1795 = { 
				discover_country = ROOT
			}
			3190 = { 
				discover_country = ROOT
			}
			3191 = { 
				discover_country = ROOT
			}
			3198 = { 
				discover_country = ROOT
			}
			3199 = { 
				discover_country = ROOT
			}
			3200 = { 
				discover_country = ROOT
			}
			3201 = { 
				discover_country = ROOT
			}
			1922 = { 
				discover_country = ROOT
			}
			1649 = {
				discover_country = ROOT
			}
			1908 = {
				discover_country = ROOT
			}
			1909 = {
				discover_country = ROOT
			}
			6115 = {
				discover_country = ROOT
			}
			6114 = {
				discover_country = ROOT
			}
			6113 = {
				discover_country = ROOT
			}
			6112 = {
				discover_country = ROOT
			}
			6120 = {
				discover_country = ROOT
			}
			1650 = {
				discover_country = ROOT
			}
		}

		#Gazraak
		if = {
			limit = {
				OR = {
					capital_scope = {
						region = gazraak_region
					}
					tag = F54
				}
			}
			
			
			#Discover Salahad and East Sarhal
			yetefesefi_region = {
				discover_country = ROOT
			}
			denibari_region = {
				discover_country = ROOT
			}
			telekenid_region = {
				discover_country = ROOT
			}
			gazraak_region = {
				discover_country = ROOT
			}
			gol_region = {
				discover_country = ROOT
			}
			kubaci_region = {
				discover_country = ROOT
			}
			akasik_region = {
				discover_country = ROOT
			}
			khetapera_region = {
				discover_country = ROOT
			}
			west_salahad_region = {
				limit = {
					NOT = {
						area = salahad_islands_area
					}
				}
				discover_country = ROOT
			}
			kheterata_region = {
				discover_country = ROOT
			}
			bulwar_proper_region = {
				discover_country = ROOT
			}
			far_bulwar_region = {
				discover_country = ROOT
			}
			far_salahad_region = {
				discover_country = ROOT
			}
			rahen_coast_region = {
				discover_country = ROOT
			}
			yakrae_area = {
				discover_country = ROOT
			}
			5537 = {
				discover_country = ROOT
			}
			6119 = {
				discover_country = ROOT
			}
			1655 = {
				discover_country = ROOT
			}
			1911 = {
				discover_country = ROOT
			}
			6105 = { 
				discover_country = ROOT
			}
			1794 = { 
				discover_country = ROOT
			}
			1793 = { 
				discover_country = ROOT
			}
			6108 = { 
				discover_country = ROOT
			}
			6107 = { 
				discover_country = ROOT
			}
			6106 = { 
				discover_country = ROOT
			}
			1795 = { 
				discover_country = ROOT
			}
			3190 = { 
				discover_country = ROOT
			}
			3191 = { 
				discover_country = ROOT
			}
			6596 = {
				discover_country = ROOT
			}
			5672 = {
				discover_country = ROOT
			}
			5561 = {
				discover_country = ROOT
			}
			3198 = { 
				discover_country = ROOT
			}
			3199 = { 
				discover_country = ROOT
			}
			3200 = { 
				discover_country = ROOT
			}
			3201 = { 
				discover_country = ROOT
			}
			1922 = { 
				discover_country = ROOT
			}
			dreksaret_region = {
				discover_country = ROOT
			}
			1343 = {
				discover_country = ROOT
			}
		}

		#Kubaci
		if = {
			limit = {
			    OR = {
				    capital_scope = {
					region = kubaci_region
				    }
					tag = U07
					tag = U10
				}
			}
			
			
			#Discover Sahalad and West Sarhal
			janama_region = {
				discover_country = ROOT
			}
			dao_nako_region = {
				discover_country = ROOT
			}
			horashesh_region = {
				discover_country = ROOT
			}
			kubaci_region = {
				discover_country = ROOT
			}
			gazraak_region = {
				discover_country = ROOT
			}
			gol_region = {
				discover_country = ROOT
			}
			akasik_region = {
				discover_country = ROOT
			}
			west_salahad_region = {
				limit = {
					NOT = {
						area = salahad_islands_area
					}
				}
				discover_country = ROOT
			}
			kheterata_region = {
				discover_country = ROOT
			}
			bulwar_proper_region = {
				discover_country = ROOT
			}
			far_bulwar_region = {
				discover_country = ROOT
			}
			far_salahad_region = {
				discover_country = ROOT
			}
			6105 = { 
				discover_country = ROOT
			}
			1794 = { 
				discover_country = ROOT
			}
			1793 = { 
				discover_country = ROOT
			}
			6108 = { 
				discover_country = ROOT
			}
			6107 = { 
				discover_country = ROOT
			}
			6106 = { 
				discover_country = ROOT
			}
			1795 = { 
				discover_country = ROOT
			}
			3190 = { 
				discover_country = ROOT
			}
			3191 = { 
				discover_country = ROOT
			}
			1922 = { 
				discover_country = ROOT
			}
			5778 = {
				discover_country = ROOT
			}
			5717 = {
				discover_country = ROOT
			}
		}

		#Hobgoblins
		if = {
			limit = {
				OR = {
					technology_group = tech_hobgoblin
					capital_scope = {
						region = jade_mines_region
					}
				}
			}
			rahen_superregion = {
				discover_country = ROOT
			}
			yanshen_superregion = {
				discover_country = ROOT
			}
			south_haless_superregion = {
				limit = { NOT = { province_group = lupulan_rainforest_interior } }
				discover_country = ROOT
			}
			gulf_of_rahen_region = {
				discover_country = ROOT
			}
			jade_mines_region = {
				discover_country = ROOT
			}
			2200 = {
				discover_country = ROOT
			}
			6560 = {
				discover_country = ROOT
			}
			6561 = {
				discover_country = ROOT
			}
			
			
			#Kharunyana
			4647 = {
				discover_country = ROOT
			}
			4648 = {
				discover_country = ROOT
			}
			4649 = {
				discover_country = ROOT
			}
			
			#Rahen Wastelands
			1788 = {
				discover_country = ROOT
			}
			1786 = {
				discover_country = ROOT
			}
			1896 = {
				discover_country = ROOT
			}
			
			#Yanshen Wastelands
			4650 = {
				discover_country = ROOT
			}
			4651 = {
				discover_country = ROOT
			}
			4652 = {
				discover_country = ROOT
			}
			4653 = {
				discover_country = ROOT
			}
			4654 = {
				discover_country = ROOT
			}
			4655 = {
				discover_country = ROOT
			}
			4656 = {
				discover_country = ROOT
			}
		}
		
		#Far Salahad - undiscover some bits of Cannor, discover Rahen
		if = {
			limit = {
				capital_scope = {
					region = far_salahad_region
				}
			}
			small_country_region = {
				undiscover_country = ROOT
			}
			damescrown_region = {
				undiscover_country = ROOT
			}
			the_borders_region = {
				undiscover_country = ROOT
			}
			esmaria_region = {
				undiscover_country = ROOT
			}
			iochand_area = {
				undiscover_country = ROOT
			}
			1919 = {
				undiscover_country = ROOT
			}
			bulwar_superregion = {
				discover_country = ROOT
			}
			4178 = {
				discover_country = ROOT
			}
			rahen_superregion = {
				discover_country = ROOT
			}
			gulf_of_rahen_region = {
				discover_country = ROOT
			}
			
			#Kharunyana
			4647 = {
				discover_country = ROOT
			}
			4648 = {
				discover_country = ROOT
			}
			4649 = {
				discover_country = ROOT
			}
			
			#Rahen Wastelands
			1788 = {
				discover_country = ROOT
			}
			1786 = {
				discover_country = ROOT
			}
			1896 = {
				discover_country = ROOT
			}
		}
		
		# East Salahad Gnolls on Gulf of Rahen
		else_if = {
			limit = {
				OR = {
					capital_scope = {
						region = gazraak_region
					}
					tag = F29
				}
			}
			gulf_of_rahen_region = {
				discover_country = ROOT
			}
		}

		#Escanni Adventurers and Orcs
		if = {
			limit = {
				OR = {
					capital_scope = {
						superregion = escann_superregion
					}
					capital_scope = {
						region = forlorn_vale_region
					}
				}
				NOT = {
					capital_scope = {
						region = dostanor_region
					}
				}
				NOT = {
					capital_scope = {
						region = ourdia_region
					}
				}
				NOT = {
					capital_scope = {
						region = daravans_folly_region
					}
				}
				NOT = { tag = A32 tag = A77 } # Hide for these guys as well
				# NOT = {
					# capital_scope = {
						# continent = serpentspine
					# }
				# }
			}
			west_castanor_region = {
				discover_country = ROOT
			}
			inner_castanor_region = {
				discover_country = ROOT
			}
			south_castanor_region = {
				discover_country = ROOT
			}
			vrorenwall_area = {
				discover_country = ROOT
			}
			1326 = {
				discover_country = ROOT
			}
			cursewood_area = {
				discover_country = ROOT
			}
			whistlevale_area = {
				discover_country = ROOT
			}
		}
		else_if = {
			limit = { OR = { tag = A32 tag = A77 } }
			forlorn_vale_region = {
				discover_country = ROOT
			}
		}
		
		#Orcs and goblins in alenic and north
		if = {
			limit = {
				OR = {
					culture_group = orcish
					culture_group = goblin
				}
				OR = {
					capital_scope = {
						region = alenic_reach_region
					}
					capital_scope = {
						region = gerudian_coast_region
					}
					capital_scope = {
						region = northern_pass_region
					}
				}
				# capital_scope = {
					# area = southern_giants_tears_area
				# }
				# capital_scope = {
					# area = northern_giants_tears_area
				# }
			}
			gerudian_coast_region = {
				discover_country = ROOT
			}
			1885 = {
				discover_country = ROOT
			}
			4146 = {
				discover_country = ROOT
			}
			alenic_reach_region = {
				discover_country = ROOT
			}
			1889 = {
				discover_country = ROOT
			}
			giants_grave_sea_region = {
				discover_country = ROOT
			}
			northern_pass_region = {
				discover_country = ROOT
			}
			1251 = {
				discover_country = ROOT
			}
			1260 = {
				discover_country = ROOT
			}
			1262 = {
				discover_country = ROOT
			}
			6124 = {
				discover_country = ROOT
			}
			west_castanor_region = {
				discover_country = ROOT
			}
			inner_castanor_region = {
				discover_country = ROOT
			}
			197 = {	#Greenscale's capital
				undiscover_country = ROOT
			}
			2001 = {
				discover_country = ROOT
			}
			2471 = {
				discover_country = ROOT
			}
		}
		
		#Serpentspine
		if = {
			limit = {
				capital_scope = {
					continent = serpentspine
				}
			}
			capital_scope = {
				every_neighbor_province = {
					discover_country = ROOT
				}
				every_empty_neighbor_province  = {
					discover_country = ROOT
				}
			}

			if = {
				limit = { 
					has_reform = dwarovar_squatter
				}
				every_owned_province = { 
					every_empty_neighbor_province = {
						discover_country = ROOT
					}
				}
			}
			
			#make verkal gulan and seghdihr discover each other, middle serpentspine(for AI) and bulwar
			if = {
				limit = {
					OR = {
						tag = H78
						tag = F47
					}
				}
				if = {
					limit = { ai = yes }
					middle_dwarovar_region = {
						discover_country = ROOT
					}
				}
				else = {
					4124 = { discover_country = ROOT } #seghdihr
					2914 = { discover_country = ROOT } #verkal gulan
					2915 = { discover_country = ROOT } #hero's vale
				}
				
				#Discover civilized divenhal
				bahar_region = {
					discover_country = ROOT
				}
				harpy_hills_region = {
					discover_country = ROOT
				}
				bulwar_proper_region = {
					discover_country = ROOT
				}
				far_bulwar_region = {
					discover_country = ROOT
				}
				far_salahad_region = {
					discover_country = ROOT
				}
				1891 = {
					discover_country = ROOT
				}
				1920 = {
					discover_country = ROOT
				}
				1921 = {
					discover_country = ROOT
				}
				1922 = {
					discover_country = ROOT
				}
				4178 = {
					discover_country = ROOT
				}
				
				#salahadesi deserts
				1795 = {
					discover_country = ROOT
				}
				3190 = {
					discover_country = ROOT
				}
				3191 = {
					discover_country = ROOT
				}
				
				#divenhal sea
				brasanni_sea_area = { 
					discover_country = ROOT
				}
				gulf_of_glass_area = { 
					discover_country = ROOT
				}
				east_diven_area = { 
					discover_country = ROOT
				}
				sea_of_follies_area = { 
					discover_country = ROOT
				}
				#Davharral trade node
				1348 = {
					discover_country = ROOT
				}
				
				4367 = {	#Rahen
					undiscover_country = ROOT
				}
			}
		}		
		
		#Kobolds dragon coast
		else_if = {
			limit = {
				OR = {
					capital_scope = {
						region = dragon_coast_region
					}
					capital_scope = {
						region = alenic_frontier_region
					}
				}
				culture_group = kobold
			}
			
			dragon_coast_region = {
				discover_country = ROOT
			}
			1001 = { #Hide Lonely Isle
				undiscover_country = ROOT
			}
			bay_of_dragons_area = {
				discover_country = ROOT
			}
			1281 = {
				discover_country = ROOT
			}
			1320 = {
				discover_country = ROOT
			}
			1321 = {
				discover_country = ROOT
			}
			1476 = {
				discover_country = ROOT
			}
			1287 = {
				discover_country = ROOT
			}
			4160 = {
				discover_country = ROOT
			}
			6168 = {
				discover_country = ROOT
			}
			small_country_region = {
				discover_country = ROOT
			}
			
			westmoor_proper_area = {
				discover_country = ROOT
			}
			moorhills_area = {
				discover_country = ROOT
			}
			beronmoor_area = {
				discover_country = ROOT
			}
			coddorran_heights_area = {
				discover_country = ROOT
			}
			storm_isles_area = {
				discover_country = ROOT
			}
			mawriver_area = {
				discover_country = ROOT
			}
			westmounts_area = {
				discover_country = ROOT
			}
			
		}		
		
		#Hill Gnolls
		else_if = {
			limit = { tag = A49 }
			businor_region = {
				discover_country = ROOT
			}
			4167 = {
				discover_country = ROOT
			}
			4162 = {
				discover_country = ROOT
			}
			6553 = {
				discover_country = ROOT
			}
			east_dameshead_region = {
				discover_country = ROOT
			}
			the_borders_region = {
				discover_country = ROOT
			}
			daravans_folly_region = {
				discover_country = ROOT
			}
			ourdia_region = {
				discover_country = ROOT
			}
			sea_of_stone_area = {
				discover_country = ROOT
			}
			sea_of_follies_area = {
				discover_country = ROOT
			}
			damesneck_sea_area = {
				discover_country = ROOT
			}
			1282 = {
				discover_country = ROOT
			}
			1280 = {
				discover_country = ROOT
			}
			1975 = {
				discover_country = ROOT
			}
		}
		
		#Rahen
		else_if = {
			limit = {
				OR = {
					capital_scope = {
						superregion = rahen_superregion
					}
					tag = R03 #Davharral
				}
			}
			far_salahad_region = {
				discover_country = ROOT
			}
			far_bulwar_region = {
				discover_country = ROOT
			}
			rahen_superregion = {
				discover_country = ROOT
			}
			yanshen_superregion = {
				discover_country = ROOT
			}
			south_haless_superregion = {
				limit = { NOT = { province_group = lupulan_rainforest_interior } }
				discover_country = ROOT
			}
			gulf_of_rahen_region = {
				discover_country = ROOT
			}
			ringlet_sea_region = {
				discover_country = ROOT
			}
			northeast_haless_coast_region = {
				discover_country = ROOT
			}
			
			#Kharunyana
			4647 = {
				discover_country = ROOT
			}
			4648 = {
				discover_country = ROOT
			}
			4649 = {
				discover_country = ROOT
			}
			
			#Rahen Wastelands
			1788 = {
				discover_country = ROOT
			}
			1786 = {
				discover_country = ROOT
			}
			1896 = {
				discover_country = ROOT
			}
			
			#Haless Wastelands
			4170 = {
				discover_country = ROOT
			}
			2334 = {
				discover_country = ROOT
			}
			3261 = {
				discover_country = ROOT
			}
			3262 = {
				discover_country = ROOT
			}
			
			#Yanshen Lakes
			1900 = {
				discover_country = ROOT
			}
			1899 = {
				discover_country = ROOT
			}
			1897 = {
				discover_country = ROOT
			}
			
			#Yanshen Wastelands
			4650 = {
				discover_country = ROOT
			}
			4651 = {
				discover_country = ROOT
			}
			4652 = {
				discover_country = ROOT
			}
			4653 = {
				discover_country = ROOT
			}
			4654 = {
				discover_country = ROOT
			}
			4655 = {
				discover_country = ROOT
			}
			4656 = {
				discover_country = ROOT
			}
			
			#salahad lake
			1922 = {
				discover_country = ROOT
			}
			
			#salahadesi deserts
			1795 = {
				discover_country = ROOT
			}
			3190 = {
				discover_country = ROOT
			}
			3191 = {
				discover_country = ROOT
			}
			6106 = {
				discover_country = ROOT
			}
			6105 = {
				discover_country = ROOT
			}

			# phokao
			3261 = {
				discover_country = ROOT
			}
			3262 = {
				discover_country = ROOT
			}

			#East Sarhal
			telekenid_region = {
				discover_country = ROOT
			}
			dreksaret_region = {
				discover_country = ROOT
			}
			yetefesefi_region = {
				discover_country = ROOT
			}
			pechuketema_area = {
				discover_country = ROOT
			}
			merekawi_area = {
				discover_country = ROOT
			}
			simegesfan_area = {
				discover_country = ROOT
			}
			kvathagis_area = {
				discover_country = ROOT
			}
			cheni_area = {
				discover_country = ROOT
			}
			kahuwabumay_area = {
				discover_country = ROOT
			}
			wakoo_area = {
				discover_country = ROOT
			}
			guwazi_area = {
				discover_country = ROOT
			}
			digirbonde_area = {
				discover_country = ROOT
			}
			kembta_area = {
				discover_country = ROOT
			}
			5441 = {
				discover_country = ROOT
			}
			1340 = {
				discover_country = ROOT
			}
			5561 = {
				discover_country = ROOT
			}
			6596 = {
				discover_country = ROOT
			}
			5537 = {
				discover_country = ROOT
			}
			5672 = {
				discover_country = ROOT
			}
			5440 = {
				discover_country = ROOT
			}
			5581 = {
				discover_country = ROOT
			}
			6710 = {
				discover_country = ROOT
			}
			5499 = {
				discover_country = ROOT
			}
			5442 = {
				discover_country = ROOT
			}
			5462 = {
				discover_country = ROOT
			}
			5566 = {
				discover_country = ROOT
			}
			coffee_coast_1_area = {
				discover_country = ROOT
			}
		}
		
		#Yanshen
		else_if = {
			limit = {
				capital_scope = {
						superregion = yanshen_superregion
				}
			}
			rahen_superregion = {
				discover_country = ROOT
			}
			yanshen_superregion = {
				discover_country = ROOT
			}
			south_haless_superregion = {
				limit = { NOT = { province_group = lupulan_rainforest_interior } }
				discover_country = ROOT
			}
			shuvuushudi_region = {
				discover_country = ROOT
			}
			odheongu_region = {
				discover_country = ROOT
			}
			gulf_of_rahen_region = {
				discover_country = ROOT
			}
			ringlet_sea_region = {
				discover_country = ROOT
			}
			northeast_haless_coast_region = {
				discover_country = ROOT
			}
			
			#Kharunyana
			4647 = {
				discover_country = ROOT
			}
			4648 = {
				discover_country = ROOT
			}
			4649 = {
				discover_country = ROOT
			}
			
			#Rahen Wastelands
			1788 = {
				discover_country = ROOT
			}
			1786 = {
				discover_country = ROOT
			}
			1896 = {
				discover_country = ROOT
			}
			
			#Haless Wastelands
			4170 = {
				discover_country = ROOT
			}
			2334 = {
				discover_country = ROOT
			}
			3261 = {
				discover_country = ROOT
			}
			3262 = {
				discover_country = ROOT
			}
			
			#Yanshen Lakes
			1900 = {
				discover_country = ROOT
			}
			1899 = {
				discover_country = ROOT
			}
			1902 = {
				discover_country = ROOT
			}
			1897 = {
				discover_country = ROOT
			}
			
			#Yanshen Wastelands
			4650 = {
				discover_country = ROOT
			}
			4651 = {
				discover_country = ROOT
			}
			4652 = {
				discover_country = ROOT
			}
			4653 = {
				discover_country = ROOT
			}
			4654 = {
				discover_country = ROOT
			}
			4655 = {
				discover_country = ROOT
			}
			4656 = {
				discover_country = ROOT
			}

			#Sarhal Wastelands
			5672 = {
				discover_country = ROOT
			}

			#East Sarhal
			telekenid_region = {
				discover_country = ROOT
			}
			dreksaret_region = {
				discover_country = ROOT
			}
			yetefesefi_region = {
				discover_country = ROOT
			}
			pechuketema_area = {
				discover_country = ROOT
			}
			merekawi_area = {
				discover_country = ROOT
			}
			simegesfan_area = {
				discover_country = ROOT
			}
			kvathagis_area = {
				discover_country = ROOT
			}
			cheni_area = {
				discover_country = ROOT
			}
			kahuwabumay_area = {
				discover_country = ROOT
			}
			wakoo_area = {
				discover_country = ROOT
			}
			guwazi_area = {
				discover_country = ROOT
			}
			digirbonde_area = {
				discover_country = ROOT
			}
			kembta_area = {
				discover_country = ROOT
			}
			1340 = {
				discover_country = ROOT
			}
			5561 = {
				discover_country = ROOT
			}
			6596 = {
				discover_country = ROOT
			}
			5537 = {
				discover_country = ROOT
			}
			5672 = {
				discover_country = ROOT
			}
			5581 = {
				discover_country = ROOT
			}
			6710 = {
				discover_country = ROOT
			}
			5499 = {
				discover_country = ROOT
			}
			coffee_coast_1_area = {
				discover_country = ROOT
			}
			5566 = {
				discover_country = ROOT
			}
		}
		
		#North Haless
		if = {
			limit = {
				capital_scope = {
					OR = {
						region = shuvuushudi_region
						region = odheongu_region
					}
				}
			}
			yanshen_superregion = {
				discover_country = ROOT
			}
			shuvuushudi_region = {
				discover_country = ROOT
			}
			odheongu_region = {
				discover_country = ROOT
			}
			northeast_haless_coast_region = {
				discover_country = ROOT
			}
			
			#Yanshen Lakes
			1900 = {
				discover_country = ROOT
			}
			1899 = {
				discover_country = ROOT
			}
			1902 = {
				discover_country = ROOT
			}
			1897 = {
				discover_country = ROOT
			}
			
			#Yanshen Wastelands
			4650 = {
				discover_country = ROOT
			}
			4651 = {
				discover_country = ROOT
			}
			4652 = {
				discover_country = ROOT
			}
			4653 = {
				discover_country = ROOT
			}
			4654 = {
				discover_country = ROOT
			}
			4655 = {
				discover_country = ROOT
			}
			4656 = {
				discover_country = ROOT
			}
		}
		
		#South Haless
		if = {
			limit = {
				capital_scope = {
					superregion = south_haless_superregion
					OR = {
						NOT = { region = lupulan_rainforest_region }
						owner = { tag = Y64 }
						owner = { tag = Y65 }
					}
				}
			}
			rahen_superregion = {
				discover_country = ROOT
			}
			yanshen_superregion = {
				discover_country = ROOT
			}
			south_haless_superregion = {
				limit = { NOT = { province_group = lupulan_rainforest_interior } }
				discover_country = ROOT
			}
			gulf_of_rahen_region = {
				discover_country = ROOT
			}
			ringlet_sea_region = {
				discover_country = ROOT
			}
			northeast_haless_coast_region = {
				discover_country = ROOT
			}

			#east sarhal
			telekenid_region = {
				discover_country = ROOT
			}
			dreksaret_region = {
				discover_country = ROOT
			}
			yetefesefi_region = {
				discover_country = ROOT
			}
			pechuketema_area = {
				discover_country = ROOT
			}
			merekawi_area = {
				discover_country = ROOT
			}
			simegesfan_area = {
				discover_country = ROOT
			}
			kvathagis_area = {
				discover_country = ROOT
			}
			cheni_area = {
				discover_country = ROOT
			}
			kahuwabumay_area = {
				discover_country = ROOT
			}
			wakoo_area = {
				discover_country = ROOT
			}
			guwazi_area = {
				discover_country = ROOT
			}
			digirbonde_area = {
				discover_country = ROOT
			}
			kembta_area = {
				discover_country = ROOT
			}
			1340 = {
				discover_country = ROOT
			}
			5561 = {
				discover_country = ROOT
			}
			6596 = {
				discover_country = ROOT
			}
			5537 = {
				discover_country = ROOT
			}
			5672 = {
				discover_country = ROOT
			}
			5581 = {
				discover_country = ROOT
			}
			6710 = {
				discover_country = ROOT
			}
			5499 = {
				discover_country = ROOT
			}
			coffee_coast_1_area = {
				discover_country = ROOT
			}
			5566 = {
				discover_country = ROOT
			}
			
			#Kharunyana
			4647 = {
				discover_country = ROOT
			}
			4648 = {
				discover_country = ROOT
			}
			4649 = {
				discover_country = ROOT
			}
			
			#Rahen Wastelands
			1788 = {
				discover_country = ROOT
			}
			1786 = {
				discover_country = ROOT
			}
			1896 = {
				discover_country = ROOT
			}
			
			#Haless Wastelands
			4170 = {
				discover_country = ROOT
			}
			2334 = {
				discover_country = ROOT
			}
			3261 = {
				discover_country = ROOT
			}
			3262 = {
				discover_country = ROOT
			}
			
			#Yanshen Lakes
			1900 = {
				discover_country = ROOT
			}
			1899 = {
				discover_country = ROOT
			}
			1897 = {
				discover_country = ROOT
			}
			
			#Yanshen Wastelands
			4650 = {
				discover_country = ROOT
			}
			4651 = {
				discover_country = ROOT
			}
			4652 = {
				discover_country = ROOT
			}
			4653 = {
				discover_country = ROOT
			}
			4654 = {
				discover_country = ROOT
			}
			4655 = {
				discover_country = ROOT
			}
			4656 = {
				discover_country = ROOT
			}

			#Sarhal Wastlands
			5672 = {
				discover_country = ROOT
			}
			5561 = {
				discover_country = ROOT
			}
			6596 = {
				discover_country = ROOT
			}
			5537 = {
				discover_country = ROOT
			}
		}
		
		#Lupulan Rainforest
		if = {
			limit = {
				capital_scope = {
					region = lupulan_rainforest_region
				}
			}
			rahen_superregion = {
				discover_country = ROOT
			}
			yanshen_superregion = {
				discover_country = ROOT
			}
			if = { #Pinghoi and Arawkelin aren't supposed to have vision
				limit = {
					NOT = { tag = Y64 } #Pinghoi
					NOT = { tag = Y65 } #Arawkelin
				}
				south_haless_superregion = {
					discover_country = ROOT
				}
			}
			if = {
				limit = {
					OR = {
						tag = Y64 #Pinghoi
						tag = Y65 #Arawkelin
					}
				}
				south_haless_superregion = {
					limit = { NOT = { province_group = lupulan_rainforest_interior } }
					discover_country = ROOT
				}
			}
			gulf_of_rahen_region = {
				discover_country = ROOT
			}
			ringlet_sea_region = {
				discover_country = ROOT
			}
			northeast_haless_coast_region = {
				discover_country = ROOT
			}
			
			#Kharunyana
			4647 = {
				discover_country = ROOT
			}
			4648 = {
				discover_country = ROOT
			}
			4649 = {
				discover_country = ROOT
			}
			
			#Rahen Wastelands
			1788 = {
				discover_country = ROOT
			}
			1786 = {
				discover_country = ROOT
			}
			1896 = {
				discover_country = ROOT
			}
			
			#Haless Wastelands
			4170 = {
				discover_country = ROOT
			}
			2334 = {
				discover_country = ROOT
			}
			3261 = {
				discover_country = ROOT
			}
			3262 = {
				discover_country = ROOT
			}
			
			#South Haless Lakes
			1898 = {
				discover_country = ROOT
			}
			
			#Yanshen Lakes
			1900 = {
				discover_country = ROOT
			}
			1899 = {
				discover_country = ROOT
			}
			1897 = {
				discover_country = ROOT
			}
			
			#Yanshen Wastelands
			4650 = {
				discover_country = ROOT
			}
			4651 = {
				discover_country = ROOT
			}
			4652 = {
				discover_country = ROOT
			}
			4653 = {
				discover_country = ROOT
			}
			4654 = {
				discover_country = ROOT
			}
			4655 = {
				discover_country = ROOT
			}
			4656 = {
				discover_country = ROOT
			}
		}

		#Fangaula
		if = {
			limit = {
				capital_scope = {
					superregion = fangaula_superregion
				}
			}
			fangaula_superregion = {
				discover_country = ROOT
			}
			dao_nako_region = {
				discover_country = ROOT
			}
			horashesh_region = {
				discover_country = ROOT
			}
			north_salahad_superregion = {
				discover_country = ROOT
			}
			khetapera_region = {
				discover_country = ROOT
			}
			fahvanosy_region = {
				discover_country = ROOT
			}
			akasik_region = {
				discover_country = ROOT
			}
			west_salahad_region = {
				discover_country = ROOT
			}
			fahvanosy_sea_area = {
				discover_country = ROOT
			}
			west_salahad_sea_area = {
				discover_country = ROOT
			}
			golkora_stretch_area = {
				discover_country = ROOT
			}
			hapmot_area = {
				discover_country = ROOT
			}
			upper_sorrow_area = {
				discover_country = ROOT
			}
			gnollakaz_area = {
				discover_country = ROOT
			}
			gnolltauz_area = {
				discover_country = ROOT
			}
			zeewix_area = {
				discover_country = ROOT
			}
			saymas_area = {
				discover_country = ROOT
			}
			krahilyn_area = {
				discover_country = ROOT
			}
			475 = {
				discover_country = ROOT
			}
			5778 = {
				discover_country = ROOT
			}
			6107 = {
				discover_country = ROOT
			}
			1793 = {
				discover_country = ROOT
			}
			1794 = {
				discover_country = ROOT
			}
			5717 = {
				discover_country = ROOT
			}
			6120 = {
				discover_country = ROOT
			}
			6115 = {
				discover_country = ROOT
			}
			6114 = {
				discover_country = ROOT
			}
			6113 = {
				discover_country = ROOT
			}
			6100 = {
				discover_country = ROOT
			}
			1649 = {
				discover_country = ROOT
			}
			1908 = {
				discover_country = ROOT
			}
			6112 = {
				discover_country = ROOT
			}
			1909 = {
				discover_country = ROOT
			}
			1650 = {
				discover_country = ROOT
			}
			6108 = {
				discover_country = ROOT
			}
			6109 = {
				discover_country = ROOT
			}
			1652 = {
				discover_country = ROOT
			}
			3198 = { 
				discover_country = ROOT
			}
			3199 = { 
				discover_country = ROOT
			}
			3200 = { 
				discover_country = ROOT
			}
			3201 = { 
				discover_country = ROOT
			}
			sil_berkhens_land_area = {	#these are those islands southwest of fahvanosy in the middle of uelos lament
				undiscover_country = ROOT
			}
			far_uelos_isles_area = {
				undiscover_country = ROOT
			}
			5791 = {
				undiscover_country = ROOT
			}
		}

		#Fahvanosy- this is the Vzemby halflings
		if = {
			limit = {
				capital_scope = {
					region = fahvanosy_region
				}
			}

			kubaci_region = {
				discover_country = ROOT
			}
			janama_region = {
				discover_country = ROOT
			}
			dao_nako_region = {
				discover_country = ROOT
			}
			horashesh_region = {
				discover_country = ROOT
			}
			fahvanosy_region = {
				discover_country = ROOT
			}
			fahvanosy_sea_area = {
				discover_country = ROOT
			}
			5778 = {
				discover_country = ROOT
			}
			5717 = {
				discover_country = ROOT
			}
			5850 = {
				discover_country = ROOT
			}
			6111 = {
				discover_country = ROOT
			}
			6605 = {
				discover_country = ROOT
			}
			1466 = {
				discover_country = ROOT
			}
			1467 = {
				discover_country = ROOT
			}
			1650 = {
				discover_country = ROOT
			}
			5820 = {
				discover_country = ROOT
			}
			1457 = {
				discover_country = ROOT
			}
			1458 = {
				discover_country = ROOT
			}
			1459 = {
				discover_country = ROOT
			}
			1625 = {
				discover_country = ROOT
			}
			3090 = {
				discover_country = ROOT
			}
			3092 = {
				discover_country = ROOT
			}
			3093 = {
				discover_country = ROOT
			}
			3094 = {
				discover_country = ROOT
			}
			3095 = {
				discover_country = ROOT
			}
			3098 = {
				discover_country = ROOT
			}
			5833 = {
				discover_country = ROOT
			}
			5834 = {
				discover_country = ROOT
			}
			5893 = {
				discover_country = ROOT
			}
			5895 = {
				discover_country = ROOT
			}
			5896 = {
				discover_country = ROOT
			}
			5898 = {
				discover_country = ROOT
			}
			5900 = {
				discover_country = ROOT
			}
			5903 = {
				discover_country = ROOT
			}
			5914 = {
				discover_country = ROOT
			}
			5929 = {
				discover_country = ROOT
			}
			5934 = {
				discover_country = ROOT
			}
			5938 = {
				discover_country = ROOT
			}
			5940 = {
				discover_country = ROOT
			}
			5941 = {
				discover_country = ROOT
			}
			5943 = {
				discover_country = ROOT
			}
			5948 = {
				discover_country = ROOT
			}
			5949 = {
				discover_country = ROOT
			}
			6004 = {
				discover_country = ROOT
			}
			6007 = {
				discover_country = ROOT
			}
			6030 = {
				discover_country = ROOT
			}
			6031 = {
				discover_country = ROOT
			}
			sil_berkhens_land_area = {	#these are those islands southwest of fahvanosy in the middle of uelos lament
				undiscover_country = ROOT
			}
			far_uelos_isles_area = {
				undiscover_country = ROOT
			}
		}

		#Horashesh
		if = {
			limit = {
				capital_scope = {
					region = horashesh_region
				}
			}

			kubaci_region = {
				discover_country = ROOT
			}
			janama_region = {
				discover_country = ROOT
			}
			dao_nako_region = {
				discover_country = ROOT
			}
			horashesh_region = {
				discover_country = ROOT
			}
			khetapera_region = {
				discover_country = ROOT
			}
			north_salahad_superregion = {
				discover_country = ROOT
			}
			fahvanosy_region = {
				discover_country = ROOT
			}
			fahvanosy_sea_area = {
				discover_country = ROOT
			}
			golkora_stretch_area = {
				discover_country = ROOT
			}
			hapmot_area = {
				discover_country = ROOT
			}
			gnollakaz_area = {
				discover_country = ROOT
			}
			gnolltauz_area = {
				discover_country = ROOT
			}
			zeewix_area = {
				discover_country = ROOT
			}
			saymas_area = {
				discover_country = ROOT
			}
			krahilyn_area = {
				discover_country = ROOT
			}
			upper_sorrow_area = {
				discover_country = ROOT
			}
			saqraxat_area = {
				discover_country = ROOT
			}
			kaxatan_area = {
				discover_country = ROOT
			}
			475 = {
				discover_country = ROOT
			}
			6100 = {
				discover_country = ROOT
			}
			5778 = {
				discover_country = ROOT
			}
			5717 = {
				discover_country = ROOT
			}
			5850 = {
				discover_country = ROOT
			}
			6114 = {
				discover_country = ROOT
			}
			6113 = {
				discover_country = ROOT
			}
			6111 = {
				discover_country = ROOT
			}
			6120 = {
				discover_country = ROOT
			}
			6605 = {
				discover_country = ROOT
			}
			1909 = {
				discover_country = ROOT
			}
			1650 = {
				discover_country = ROOT
			}
			6112 = {
				discover_country = ROOT
			}
			1908 = {
				discover_country = ROOT
			}
			1649 = {
				discover_country = ROOT
			}
			5820 = {
				discover_country = ROOT
			}
			1466 = {
				discover_country = ROOT
			}
			1467 = {
				discover_country = ROOT
			}
			1457 = {
				discover_country = ROOT
			}
			1458 = {
				discover_country = ROOT
			}
			1459 = {
				discover_country = ROOT
			}
			1625 = {
				discover_country = ROOT
			}
			3090 = {
				discover_country = ROOT
			}
			3092 = {
				discover_country = ROOT
			}
			3093 = {
				discover_country = ROOT
			}
			3094 = {
				discover_country = ROOT
			}
			3095 = {
				discover_country = ROOT
			}
			3098 = {
				discover_country = ROOT
			}
			5833 = {
				discover_country = ROOT
			}
			5834 = {
				discover_country = ROOT
			}
			5893 = {
				discover_country = ROOT
			}
			5895 = {
				discover_country = ROOT
			}
			5896 = {
				discover_country = ROOT
			}
			5903 = {
				discover_country = ROOT
			}
			5914 = {
				discover_country = ROOT
			}
			5929 = {
				discover_country = ROOT
			}
			5934 = {
				discover_country = ROOT
			}
			5938 = {
				discover_country = ROOT
			}
			5940 = {
				discover_country = ROOT
			}
			5941 = {
				discover_country = ROOT
			}
			5943 = {
				discover_country = ROOT
			}
			5948 = {
				discover_country = ROOT
			}
			5949 = {
				discover_country = ROOT
			}
			6004 = {
				discover_country = ROOT
			}
			6007 = {
				discover_country = ROOT
			}
			6030 = {
				discover_country = ROOT
			}
			6031 = {
				discover_country = ROOT
			}
			6115 = {
				discover_country = ROOT
			}
			3201 = { 
				discover_country = ROOT
			}
			zesipas_tara_area = {
				discover_country = ROOT
			}
			karassk_tara_area = {
				discover_country = ROOT
			}
			khulgulkin_area = {
				discover_country = ROOT
			}
			narasad_area = {
				discover_country = ROOT
			}
			sil_berkhens_land_area = {	#these are those islands southwest of fahvanosy in the middle of uelos lament
				undiscover_country = ROOT
			}
			far_uelos_isles_area = {
				undiscover_country = ROOT
			}
			
		}

		#Khetapera
		if = {
			limit = {
				capital_scope = {
					region = khetapera_region
				}
			}

			kubaci_region = {
				discover_country = ROOT
			}
			janama_region = {
				discover_country = ROOT
			}
			dao_nako_region = {
				discover_country = ROOT
			}
			horashesh_region = {
				discover_country = ROOT
			}
			khetapera_region = {
				discover_country = ROOT
			}
			fahvanosy_region = {
				discover_country = ROOT
			}
			katala_raz_region = {
				discover_country = ROOT
			}
			throden_gokad_region = {
				discover_country = ROOT
			}
			odu_kherass_region = {
				discover_country = ROOT
			}
			gol_region = {
				discover_country = ROOT
			}
			kheterata_region = {
				discover_country = ROOT
			}
			fahvanosy_sea_area = {
				discover_country = ROOT
			}
			brasanni_sea_area = {
				discover_country = ROOT
			}
			east_diven_area = {
				discover_country = ROOT
			}
			western_krahway_area = {
				discover_country = ROOT
			}
			garpix_brrtekuh_area = {
				discover_country = ROOT
			}
			6100 = {
				discover_country = ROOT
			}
			5778 = {
				discover_country = ROOT
			}
			5717 = {
				discover_country = ROOT
			}
			5850 = {
				discover_country = ROOT
			}
			6114 = {
				discover_country = ROOT
			}
			6113 = {
				discover_country = ROOT
			}
			6111 = {
				discover_country = ROOT
			}
			6120 = {
				discover_country = ROOT
			}
			6605 = {
				discover_country = ROOT
			}
			1909 = {
				discover_country = ROOT
			}
			1650 = {
				discover_country = ROOT
			}
			6112 = {
				discover_country = ROOT
			}
			1908 = {
				discover_country = ROOT
			}
			1649 = {
				discover_country = ROOT
			}
			5820 = {
				discover_country = ROOT
			}
			1793 = {
				discover_country = ROOT
			}
			1794 = {
				discover_country = ROOT
			}
			1466 = {
				discover_country = ROOT
			}
			1467 = {
				discover_country = ROOT
			}
			1651 = {
				discover_country = ROOT
			}
			1467 = {
				discover_country = ROOT
			}
			1651 = {
				discover_country = ROOT
			}
			1653 = {
				discover_country = ROOT
			}
			1656 = {
				discover_country = ROOT
			}
			1910 = {
				discover_country = ROOT
			}
			6115 = {
				discover_country = ROOT
			}
			1457 = {
				discover_country = ROOT
			}
			1458 = {
				discover_country = ROOT
			}
			1459 = {
				discover_country = ROOT
			}
			1625 = {
				discover_country = ROOT
			}
			3090 = {
				discover_country = ROOT
			}
			3092 = {
				discover_country = ROOT
			}
			3093 = {
				discover_country = ROOT
			}
			3094 = {
				discover_country = ROOT
			}
			3095 = {
				discover_country = ROOT
			}
			3098 = {
				discover_country = ROOT
			}
			3198 = {
				discover_country = ROOT
			}
			3200 = {
				discover_country = ROOT
			}
			3201 = {
				discover_country = ROOT
			}
			6032 = {
				undiscover_country = ROOT
			}
			6033 = {
				undiscover_country = ROOT
			}
			6060 = {
				undiscover_country = ROOT
			}
			sil_berkhens_land_area = {	#these are those islands southwest of fahvanosy in the middle of uelos lament
				undiscover_country = ROOT
			}
			far_uelos_isles_area = {
				undiscover_country = ROOT
			}
		}

		#Mengi
		if = {
			limit = {
				OR = {
					capital_scope = {
						region = yetefesefi_region
					}
					capital_scope = {
						region = telekenid_region
					}
					capital_scope = {
						region = dreksaret_region
					}
					capital_scope = {
						region = denibari_region
					}
				}
			}
			gazraak_region = {
				discover_country = ROOT
			}
			east_sarhal_superregion = {
				discover_country = ROOT
			}
			yezel_mora_region = {
				undiscover_country = ROOT
			}
			gulf_of_rahen_area = {
				discover_country = ROOT
			}
			kedwali_gulf_region = {
				discover_country = ROOT
			}
			1640 = {
				undiscover_country = ROOT
			}
			1352 = {
				undiscover_country = ROOT
			}
			1643 = {
				undiscover_country = ROOT
			}
			1634 = {
				undiscover_country = ROOT
			}
			1433 = {
				undiscover_country = ROOT
			}
			1431 = {
				undiscover_country = ROOT
			}
			1353 = {
				undiscover_country = ROOT
			}
			rahen_coast_region = {
				discover_country = ROOT
			}
			ringlet_sea_region = {
				discover_country = ROOT
			}
			6596 = {
				discover_country = ROOT
			}
			5672 = {
				discover_country = ROOT
			}
			5561 = {
				discover_country = ROOT
			}
			5537 = {
				discover_country = ROOT
			}
			1655 = {
				discover_country = ROOT
			}
			1911 = {
				discover_country = ROOT
			}
			6119 = {
				discover_country = ROOT
			}
			dasmatus_area = {
				discover_country = ROOT
			}
			5437 = {
				discover_country = ROOT
			}
			5436 = {
				discover_country = ROOT
			}
			keruhar_area = {
				discover_country = ROOT
			}
			arrtukerr_area = {
				discover_country = ROOT
			}
			dhal_tanizuud_area = {
				discover_country = ROOT
			}
			juritaqa_area = {
				discover_country = ROOT
			}
			ashamad_bariga_area = {
				discover_country = ROOT
			}
			dhal_baeidag_area = {
				discover_country = ROOT
			}
			tiki_shalazar_area = {
				discover_country = ROOT
			}
			tiki_ra_shaga_area = {
				discover_country = ROOT
			}
			yok_ra_shaga_area = {
				discover_country = ROOT
			}
			6673 = {
				discover_country = ROOT
			}
			6034 = {
				discover_country = ROOT
			}
			6036 = {
				discover_country = ROOT
			}
			6038 = {
				discover_country = ROOT
			}
			6039 = {
				discover_country = ROOT
			}
			6041 = {
				discover_country = ROOT
			}
			6040 = {
				discover_country = ROOT
			}
			6042 = {
				discover_country = ROOT
			}
			6043 = {
				discover_country = ROOT
			}
			6678 = {
				discover_country = ROOT
			}
			6000 = {
				discover_country = ROOT
			}
			6045 = {
				discover_country = ROOT
			}
			6047 = {
				discover_country = ROOT
			}
			6049 = {
				discover_country = ROOT
			}
			6679 = {
				discover_country = ROOT
			}
			6056 = {
				discover_country = ROOT
			}
			6127 = {
				discover_country = ROOT
			}
			3226 = {
				discover_country = ROOT
			}
			5848 = {
				discover_country = ROOT
			}
			3227 = {
				discover_country = ROOT
			}
			6063 = {
				discover_country = ROOT
			}
			3229 = {
				discover_country = ROOT
			}
			6571 = {
				discover_country = ROOT
			}
			6061 = {
				discover_country = ROOT
			}
			1328 = {
				discover_country = ROOT
			}
			sut_ra_thon_area = {
				discover_country = ROOT
			}
			1656 = {
				discover_country = ROOT
			}
			6569 = {
				discover_country = ROOT
			}
			hoangdesinh_area = {
				discover_country = ROOT
			}
			lembiahar_area = {
				discover_country = ROOT
			}
			arawkelin_area = {
				discover_country = ROOT
			}
			4774 = {
				discover_country = ROOT
			}
			6117 = {
				discover_country = ROOT
			}
			amkamsek_area = {
				discover_country = ROOT
			}
			6724 = {
				discover_country = ROOT
			}
			6714 = {
				discover_country = ROOT
			}
			6716 = {
				discover_country = ROOT
			}
			6720 = {
				discover_country = ROOT
			}
			6721 = {
				discover_country = ROOT
			}
			zallirkor_area = {
				discover_country = ROOT
			}
			5464 = {
				discover_country = ROOT
			}

		}

		if = {
			limit = {
				capital_scope = {
					region = yezel_mora_region
				}
			}
			yezel_mora_region = {
				discover_country = ROOT
			}
			yetefesefi_region = {
				discover_country = ROOT
			}
			denibari_region = {
				discover_country = ROOT
			}
			guifa_guyamva_region = {
				discover_country = ROOT
			}
			guifa_zahab_region = {
				discover_country = ROOT
			}
			telekenid_region = {
				discover_country = ROOT
			}
			gazraak_region = {
				discover_country = ROOT
			}
		}

		#Guifa Guyama and Guifa Zahab (Tanizu, Dakinshi, and Antemvura)
		if = {
			limit = {
				OR = {
					capital_scope = {
						region = guifa_guyamva_region
					}
					capital_scope = {
						region = guifa_zahab_region
					}
				}
			}
			east_sarhal_superregion = {
				discover_country = ROOT
			}
			guifa_zahab_region = {
				discover_country = ROOT
			}
			yezel_mora_region = {
				undiscover_country = ROOT
			}
			rahen_coast_region = {
				discover_country = ROOT
			}
			ringlet_isles_region = {
				discover_country = ROOT
			}
			ringlet_sea_region = {
				discover_country = ROOT
			}
			lembiahar_area = {
				discover_country = ROOT
			}
			gulf_of_rahen_area = {
				discover_country = ROOT
			}
			kedwali_gulf_region = {
				discover_country = ROOT
			}
			arawkelin_area = {
				discover_country = ROOT
			}
			thuongidut_area = {
				discover_country = ROOT
			}
			6596 = {
				discover_country = ROOT
			}
			5672 = {
				discover_country = ROOT
			}
			5561 = {
				discover_country = ROOT
			}
			5537 = {
				discover_country = ROOT
			}
			1655 = {
				discover_country = ROOT
			}
			1911 = {
				discover_country = ROOT
			}
			6119 = {
				discover_country = ROOT
			}
			4727 = {
				discover_country = ROOT
			}
			4774 = {
				discover_country = ROOT
			}
			4728 = {
				discover_country = ROOT
			}
			4746 = {
				discover_country = ROOT
			}
			4955 = {
				discover_country = ROOT
			}
			4745 = {
				discover_country = ROOT
			}
			4752 = {
				discover_country = ROOT
			}
			4805 = {
				discover_country = ROOT
			}

			#Vision adjustment for Tanizu and Dakinshi
			if = {
				limit = {
					OR = {
						primary_culture = tanizu
						primary_culture = dakinshi
					}
				}
				kedwali_gulf_region = {
					discover_country = ROOT
				}
				jasiir_jadid_region = {
					discover_country = ROOT
				}
				ardimya_region = {
					discover_country = ROOT
				}
				tiki_shalazar_area = {
					discover_country = ROOT
				}
				sut_ra_thon_area = {
					discover_country = ROOT
				}
				tiki_ra_shaga_area = {
					discover_country = ROOT
				}
				yok_ra_shaga_area = {
					discover_country = ROOT
				}
				dasmatus_area = {
					discover_country = ROOT
				}
				arrtukerr_area = {
					discover_country = ROOT
				}
				keruhar_area = {
					discover_country = ROOT
				}
				1328 = {
					discover_country = ROOT
				}
				1329 = {
					discover_country = ROOT
				}
				1330 = {
					discover_country = ROOT
				}
				1331 = {
					discover_country = ROOT
				}
				3141 = {
					discover_country = ROOT
				}
				1446 = {
					discover_country = ROOT
				}
				1447 = {
					discover_country = ROOT
				}
				1448 = {
					discover_country = ROOT
				}
				3101 = {
					discover_country = ROOT
				}
				3100 = {
					discover_country = ROOT
				}
				3099 = {
					discover_country = ROOT
				}
				1456 = {
					discover_country = ROOT
				}
				6032 = {
					discover_country = ROOT
				}
				1372 = {
					undiscover_country = ROOT
				}
				1371 = {
					undiscover_country = ROOT
				}
				1419 = {
					undiscover_country = ROOT
				}
				1417 = {
					undiscover_country = ROOT
				}
				1418 = {
					undiscover_country = ROOT
				}
				1353 = {
					undiscover_country = ROOT
				}
				1433 = {
					undiscover_country = ROOT
				}
				1431 = {
					undiscover_country = ROOT
				}
				1643 = {
					undiscover_country = ROOT
				}
				1634 = {
					undiscover_country = ROOT
				}
				1352 = {
					undiscover_country = ROOT
				}
				1640 = {
					undiscover_country = ROOT
				}
				3223 = {
					undiscover_country = ROOT
				}
				1790 = {
					discover_country = ROOT
				}
				6589 = {
					discover_country = ROOT
				}
				1904 = {
					discover_country = ROOT
				}
				1656 = {
					discover_country = ROOT
				}
			}

			#Vision adjustment for Antmvura culture
			if = {
				limit = {
					primary_culture = antmvura
				}
				gazraak_region = {
					discover_country = ROOT
				}
				4836 = {
					discover_country = ROOT
				}
				4837 = {
					discover_country = ROOT
				}
				4839 = {
					discover_country = ROOT
				}
			}
		}

		#Baashidi
		if = {
			limit = {
				capital_scope = {
					region = jasiir_jadid_region
				}
			}

			throden_gokad_region = {
				discover_country = ROOT
			}
			katala_raz_region = {
				discover_country = ROOT
			}
			odu_kherass_region = {
				discover_country = ROOT
			}
			jasiir_jadid_region = {
				discover_country = ROOT
			}
			ardimya_region = {
				discover_country = ROOT
			}
			fahvanosy_region = {
				discover_country = ROOT
			}
			horashesh_region = {
				discover_country = ROOT
			}
			khetapera_region = {
				discover_country = ROOT
			}
			south_sarhal_coast_region = {
				discover_country = ROOT
			}
			ringlet_isles_region = {
				discover_country = ROOT
			}
			guifa_zahab_region = {
				discover_country = ROOT
			}
			guifa_guyamva_region = {
				discover_country = ROOT
			}
			mabeedi_sea_area = {
				discover_country = ROOT
			}
			kedwali_gulf_region = {
				discover_country = ROOT
			}
			ringlet_sea_area = {
				discover_country = ROOT
			}
			lembiahar_area = {
				discover_country = ROOT
			}
			arawkelin_area = {
				discover_country = ROOT
			}
			dhenbasana_estuary_area = {
				discover_country = ROOT
			}
			amkamsek_area = {
				discover_country = ROOT
			}
			yetmesira_area = {
				discover_country = ROOT
			}
			berihrica_area = {
				discover_country = ROOT
			}
			irkan_eparta_area = {
				discover_country = ROOT
			}
			bedaphire_area = {
				discover_country = ROOT
			}
			4714 = {
				discover_country = ROOT
			}
			4715 = {
				discover_country = ROOT
			}
			4962 = {
				discover_country = ROOT
			}
			4709= {
				discover_country = ROOT
			}
			4711 = {
				discover_country = ROOT
			}
			4769 = {
				discover_country = ROOT
			}
			4699 = {
				discover_country = ROOT
			}
			4701 = {
				discover_country = ROOT
			}
			4958 = {
				discover_country = ROOT
			}
			4697 = {
				discover_country = ROOT
			}
			4771 = {
				discover_country = ROOT
			}
			4576 = {
				discover_country = ROOT
			}
			4575 = {
				discover_country = ROOT
			}
			4574 = {
				discover_country = ROOT
			}
			4573 = {
				discover_country = ROOT
			}
			4769 = {
				discover_country = ROOT
			}
			4570 = {
				discover_country = ROOT
			}
			4569 = {
				discover_country = ROOT
			}
			4568 = {
				discover_country = ROOT
			}
			4567 = {
				discover_country = ROOT
			}
			4557 = {
				discover_country = ROOT
			}
			4556 = {
				discover_country = ROOT
			}
			4554 = {
				discover_country = ROOT
			}
			4420 = {
				discover_country = ROOT
			}
			4387 = {
				discover_country = ROOT
			}
			4389 = {
				discover_country = ROOT
			}
			4377 = {
				discover_country = ROOT
			}
			4383 = {
				discover_country = ROOT
			}
			1910 = {
				discover_country = ROOT
			}
			1651 = {
				discover_country = ROOT
			}
			1653 = {
				discover_country = ROOT
			}
			1656 = {
				discover_country = ROOT
			}
			6117 = {
				discover_country = ROOT
			}
			6116 = {
				discover_country = ROOT
			}
			5850 = {
				discover_country = ROOT
			}
			6605 = {
				discover_country = ROOT
			}
			1650 = {
				discover_country = ROOT
			}
			6111 = {
				discover_country = ROOT
			}
			5717 = {
				discover_country = ROOT
			}
			6120 = {
				discover_country = ROOT
			}
			6112 = {
				discover_country = ROOT
			}
			6113 = {
				discover_country = ROOT
			}
			6114 = {
				discover_country = ROOT
			}
			1649 = {
				discover_country = ROOT
			}
			1908 = {
				discover_country = ROOT
			}
			1790 = {
				discover_country = ROOT
			}
			6589 = {
				discover_country = ROOT
			}
			1904 = {
				discover_country = ROOT
			}
			1344 = {
				discover_country = ROOT
			}
			1611 = {
				discover_country = ROOT
			}
			1360 = {
				discover_country = ROOT
			}
			1361 = {
				discover_country = ROOT
			}
			1362 = {
				discover_country = ROOT
			}
			1364 = {
				discover_country = ROOT
			}
			1328 = {
				discover_country = ROOT
			}
			1329 = {
				discover_country = ROOT
			}
			1330 = {
				discover_country = ROOT
			}
			1331 = {
				discover_country = ROOT
			}
			3141 = {
				discover_country = ROOT
			}
			1446 = {
				discover_country = ROOT
			}
			1447 = {
				discover_country = ROOT
			}
			1651 = {
				discover_country = ROOT
			}
			1640 = {
				undiscover_country = ROOT
			}
			1352 = {
				undiscover_country = ROOT
			}
			1643 = {
				undiscover_country = ROOT
			}
			1634 = {
				undiscover_country = ROOT
			}
			1433 = {
				undiscover_country = ROOT
			}
			1431 = {
				undiscover_country = ROOT
			}
			1353 = {
				undiscover_country = ROOT
			}
			3223 = {
				undiscover_country = ROOT
			}
			6654 = {
				undiscover_country = ROOT
			}
			sil_berkhens_land_area = {	#these are those islands southwest of fahvanosy in the middle of uelos lament
				undiscover_country = ROOT
			}
			far_uelos_isles_area = {
				undiscover_country = ROOT
			}
		}

		#Lizardfolk
		if = {
			limit = {
				capital_scope = {
					OR = {
						region = guifa_guyamva_region
						superregion = south_sarhal_superregion
					}
					NOT = { region = jasiir_jadid_region }
				}
			}

			throden_gokad_region = {
				discover_country = ROOT
			}
			katala_raz_region = {
				discover_country = ROOT
			}
			odu_kherass_region = {
				discover_country = ROOT
			}
			jasiir_jadid_region = {
				discover_country = ROOT
			}
			ardimya_region = {
				discover_country = ROOT
			}
			mabeedi_sea_area = {
				discover_country = ROOT
			}
			kedwali_gulf_region = {
				discover_country = ROOT
			}
			kirksanlashan_area = {
				discover_country = ROOT
			}
			kidfan_area = {
				discover_country = ROOT
			}
			yezelshaff_area = {
				discover_country = ROOT
			}
			wezingoni_area = {
				discover_country = ROOT
			}
			kadamuu_area = {
				discover_country = ROOT
			}
			saposon_area = {
				discover_country = ROOT
			}
			sedarachit_area = {
				discover_country = ROOT
			}
			fahvanosy_region = {
				discover_country = ROOT
			}
			horashesh_region = {
				discover_country = ROOT
			}
			khetapera_region = {
				discover_country = ROOT
			}
			guifa_guyamva_region = {
				discover_country = ROOT
			}
			guifa_zahab_region = {
				discover_country = ROOT
			}
			south_sarhal_coast_region = {
				discover_country = ROOT
			}
			1651 = {
				discover_country = ROOT
			}
			1910 = {
				discover_country = ROOT
			}
			1651 = {
				discover_country = ROOT
			}
			1653 = {
				discover_country = ROOT
			}
			1656 = {
				discover_country = ROOT
			}
			6117 = {
				discover_country = ROOT
			}
			6116 = {
				discover_country = ROOT
			}
			5850 = {
				discover_country = ROOT
			}
			6605 = {
				discover_country = ROOT
			}
			1650 = {
				discover_country = ROOT
			}
			6111 = {
				discover_country = ROOT
			}
			5717 = {
				discover_country = ROOT
			}
			6120 = {
				discover_country = ROOT
			}
			6112 = {
				discover_country = ROOT
			}
			6113 = {
				discover_country = ROOT
			}
			6114 = {
				discover_country = ROOT
			}
			6119 = {
				discover_country = ROOT
			}
			1655 = {
				discover_country = ROOT
			}
			1649 = {
				discover_country = ROOT
			}
			1908 = {
				discover_country = ROOT
			}
			1328 = {
				discover_country = ROOT
			}
			1329 = {
				discover_country = ROOT
			}
			1330 = {
				discover_country = ROOT
			}
			1331 = {
				discover_country = ROOT
			}
			3141 = {
				discover_country = ROOT
			}
			1446 = {
				discover_country = ROOT
			}
			1447 = {
				discover_country = ROOT
			}
			3223 = {
				undiscover_country = ROOT
			}
			5541 = {
				undiscover_country = ROOT
			}
			5542 = {
				undiscover_country = ROOT
			}
			5543 = {
				undiscover_country = ROOT
			}
			5545 = {
				undiscover_country = ROOT
			}
			5549 = {
				undiscover_country = ROOT
			}
			5550 = {
				undiscover_country = ROOT
			}
			5558 = {
				undiscover_country = ROOT
			}
			5581 = {
				undiscover_country = ROOT
			}
			6645 = {
				undiscover_country = ROOT
			}
			6647 = {
				undiscover_country = ROOT
			}
			6648 = {
				undiscover_country = ROOT
			}
			6649 = {
				undiscover_country = ROOT
			}
			6650 = {
				undiscover_country = ROOT
			}
			sil_berkhens_land_area = {	#these are those islands southwest of fahvanosy in the middle of uelos lament
				undiscover_country = ROOT
			}
			far_uelos_isles_area = {
				undiscover_country = ROOT
			}
		}

		#taychend and kheionai
		else_if = {
			limit = {
				OR = {
					capital_scope = {
						superregion = taychend_superregion
					}
					capital_scope = {
						superregion = kheionai_superregion
					}
				}
			}
			if = {
				limit = {
					OR = {
						culture_group = kheionai_ruinborn_elf
						culture_group = taychendi_ruinborn_elf
						tag = J73
						tag = J74
						tag = J72
					}
				}
				taychend_superregion = {
					discover_country = ROOT
				}
				kheionai_superregion = {
					discover_country = ROOT
				}
				cleaved_sea_area = {
					discover_country = ROOT
				}
				sea_of_ameion_area = {
					discover_country = ROOT
				}
				radiant_sea_area = {
					discover_country = ROOT
				}
				1719 = {
					discover_country = ROOT
				}
				2512 = {
					discover_country = ROOT
				}
				2328 = {
					discover_country = ROOT
				}
				2327 = {
					discover_country = ROOT
				}
				2326 = {
					discover_country = ROOT
				}
				#discover mountains and lakes
				2936 = {
					discover_country = ROOT
				}
				1663 = {
					discover_country = ROOT
				}
				1779 = {
					discover_country = ROOT
				}
				
				1785 = {
					discover_country = ROOT
				}
				1791 = {
					discover_country = ROOT
				}
				1662 = {
					discover_country = ROOT
				}
				6121 = {
					discover_country = ROOT
				}
				6122 = {
					discover_country = ROOT
				}
				6123 = {
					discover_country = ROOT
				}
				
				1420 = {
					discover_country = ROOT
				}
				1523 = {
					discover_country = ROOT
				}
				2938 = {
					discover_country = ROOT
				}
				4115 = {
					discover_country = ROOT
				}
				4116 = {
					discover_country = ROOT
				}
				4159 = {
					discover_country = ROOT
				}
				4169 = {
					discover_country = ROOT
				}
				
				#discover some kaydhano
				1711 = {
					discover_country = ROOT
				}
				1549 = {
					discover_country = ROOT
				}
				1550 = {
					discover_country = ROOT
				}
				
				if = {	#Larankar undiscovers Kheionai
					limit = {
						primary_culture = larankarha
					}
				
					cleaved_sea_coast_region = {
						undiscover_country = ROOT
					}
					alecand_region = {
						undiscover_country = ROOT
					}
					devand_region = {
						limit = {
							island = yes
						}
						undiscover_country = ROOT
					}
					2936 = {
						undiscover_country = ROOT
					}
				}
			}
			else_if = {
				limit = {
					culture_group = devandi_ruinborn_elf
				}
				mteibas_valley_region = {
					discover_country = ROOT
				}
				devand_region = {
					discover_country = ROOT
				}
				andic_reach_region = {
					discover_country = ROOT
				}
				chendhya_region = {
					discover_country = ROOT
				}
				darkalyndar_area = {
					discover_country = ROOT
				}
				korrimutren_area = {
					discover_country = ROOT
				}
				caergaraen_area = {
					discover_country = ROOT
				}
				clematar_area = {
					discover_country = ROOT
				}
				2462 = {
					discover_country = ROOT
				}
				taychend_superregion = {
					discover_country = ROOT
				}
				2512 = {
					discover_country = ROOT
				}
				2507 = {
					discover_country = ROOT
				}
				
				#Seas
				1546 = {
					discover_country = ROOT
				}
				1731 = {
					discover_country = ROOT
				}
				1739 = {
					discover_country = ROOT
				}
				1729 = {
					discover_country = ROOT
				}
				1713 = {
					discover_country = ROOT
				}
				1712 = {
					discover_country = ROOT
				}
				1547 = {
					discover_country = ROOT
				}
				1545 = {
					discover_country = ROOT
				}
				1703 = {
					discover_country = ROOT
				}
				1543 = {
					discover_country = ROOT
				}
				1544 = {
					discover_country = ROOT
				}
				
				#Lakes and Wasteland
				1663 = {
					discover_country = ROOT
				}
				1662 = {
					discover_country = ROOT
				}
				1779 = {
					discover_country = ROOT
				}
				1785 = {
					discover_country = ROOT
				}
				1420 = {
					discover_country = ROOT
				}
				1523 = {
					discover_country = ROOT
				}
				2938 = {
					discover_country = ROOT
				}
				4115 = {
					discover_country = ROOT
				}
				4116 = {
					discover_country = ROOT
				}
				4159 = {
					discover_country = ROOT
				}
				4169 = {
					discover_country = ROOT
				}
				6121 = {
					discover_country = ROOT
				}
				6122 = {
					discover_country = ROOT
				}
				3204 = {
					discover_country = ROOT
				}
				3203 = {
					discover_country = ROOT
				}
				3202 = {
					discover_country = ROOT
				}
				6749 = {
					discover_country = ROOT
				}
				
				#Undiscover some islands
				2681 = {
					undiscover_country = ROOT
				}
				2717 = {
					undiscover_country = ROOT
				}
				2718 = {
					undiscover_country = ROOT
				}
				2719 = {
					undiscover_country = ROOT
				}
				2722 = {
					undiscover_country = ROOT
				}
				2750 = {
					undiscover_country = ROOT
				}
				2774 = {
					undiscover_country = ROOT
				}
			}
			else_if = {
				limit = {
					culture_group = eltibhari_ruinborn_elf
				}
				alecand_region = {
					discover_country = ROOT
				}
				devand_region = {
					limit = {
						island = yes
					}
					discover_country = ROOT
				}
				
				#Seas
				cleaved_sea_area = {
					discover_country = ROOT
				}
				1711 = {
					discover_country = ROOT
				}
				
				#Wasteland
				2936 = {
					discover_country = ROOT
				}
				
				#Undiscover
				1729 = {
					undiscover_country = ROOT
				}
				2724 = {
					undiscover_country = ROOT
				}
				2716 = {
					undiscover_country = ROOT
				}
			}
		}
		
		#eordand
		else_if = {
			limit = {
				capital_scope = {
					superregion = eordand_superregion
				}
				culture_group = eordan_ruinborn_elf
			}
			eordand_superregion = {
				limit = {
					NOT = {
						region = domandrod_region
						province_id = 6558
					}
				}
				discover_country = ROOT
			}
			1805 = {
				discover_country = ROOT
			}
			1587 = {
				discover_country = ROOT
			}
			1693 = {
				discover_country = ROOT
			}
			1695 = {
				discover_country = ROOT
			}
			1690 = {
				discover_country = ROOT
			}
			1391 = {
				discover_country = ROOT
			}
			1689 = {
				discover_country = ROOT
			}
			1683 = {
				discover_country = ROOT
			}
			1396 = {
				discover_country = ROOT
			}
			1685 = {
				discover_country = ROOT
			}
			1714 = {
				discover_country = ROOT
			}
			1707 = {
				discover_country = ROOT
			}
			1696 = {
				discover_country = ROOT
			}
			1692 = {
				discover_country = ROOT
			}
		}
		
		#ynn
		else_if = {
			limit = {
				capital_scope = {
					superregion = ynn_superregion
				}
				OR = {
					culture_group = ynnic_ruinborn_elf
					culture_group = veykodan_ruinborn_elf
					primary_culture = epednar
					primary_culture = cursed_ones
				}
			}
			sarda_region = {
				discover_country = ROOT
			}
			dolindha_region = {
				discover_country = ROOT
			}
			rzenta_region = {
				discover_country = ROOT
			}
			pomvasonn_area = {
				discover_country = ROOT
			}
			6501 = {	#Ynn River
				discover_country = ROOT
			}
			6547 = {	#Ynn River
				discover_country = ROOT
			}
			6548 = {	#Ynn River
				discover_country = ROOT
			}
			6549 = {	#Ynn River
				discover_country = ROOT
			}
			6550 = {	#Ynn River
				discover_country = ROOT
			}
			6551 = {	#Ynn River
				discover_country = ROOT
			}
			6552 = {	#Ynn River
				discover_country = ROOT
			}
		}
		
		#noruin
		else_if = {
			limit = {
				OR = {
					capital_scope = {
						region = bloodgroves_region
					}
					capital_scope = {
						region = trollsbay_region
					}
					capital_scope = {
						region = reapers_coast_region
					}
				}
				OR = {
					culture_group = north_ruinborn_elf
					primary_culture = bloodfeeders
				}
			}
			bloodgroves_region = {
				discover_country = ROOT
			}
			trollsbay_region = {
				discover_country = ROOT
			}
			reapers_coast_region = {
				discover_country = ROOT
			}
			silsenald_isles_area = {
				discover_country = ROOT
			}
			great_tussock_area = {
				discover_country = ROOT
			}
			saamirses_area = {
				discover_country = ROOT
			}
			#Sea tiles
			trollsbay_coast_area = {
				discover_country = ROOT
			}
			reapers_coast_area = {
				discover_country = ROOT
			}
			1531 = {
				discover_country = ROOT
			}
			1583 = {
				discover_country = ROOT
			}
			1500 = {
				discover_country = ROOT
			}
			1674 = {
				discover_country = ROOT
			}
			1105 = {
				discover_country = ROOT
			}
			1106 = {
				discover_country = ROOT
			}
			#Cheshoshi Vision Adjustement
			if = {
				limit = {
					primary_culture = cheshoshi
				}
				xochibarcel_quixo_area = {
					discover_country = ROOT
				}
				mtzacuala_yolli_area = {
					discover_country = ROOT
				}
				manquitencos_area = {
					discover_country = ROOT
				}
				tumbatin_xochibar_area = {
					discover_country = ROOT
				}
				tameter_area = {
					discover_country = ROOT
				}
				cuecuaden_area = {
					discover_country = ROOT
				}
				naftlachilar_area = {
					discover_country = ROOT
				}
			}
		}
		
		#haraf
		else_if = {
			limit = {
				capital_scope = {
					region = haraf_region
				}
				OR = {
					culture_group = harafic_ruinborn_elf
					primary_culture = silent_watchers
				}
			}
			haraf_region = {
				discover_country = ROOT
			}
			guardian_islands_area = {
				discover_country = ROOT
			}
			2155 = {
				discover_country = ROOT
			}
			#Sea tiles
			1557 = {
				discover_country = ROOT
			}
			1559 = {
				discover_country = ROOT
			}
			1560 = {
				discover_country = ROOT
			}
			1561 = {
				discover_country = ROOT
			}
			1720 = {
				discover_country = ROOT
			}
			1682 = {
				discover_country = ROOT
			}
			1445 = {
				discover_country = ROOT
			}
			1678 = {
				discover_country = ROOT
			}
			#Wasteland
			1811 = {
				discover_country = ROOT
			}
			#Vision Adjustement for Mayte
			if = {
				limit = {
					primary_culture = mayte
				}
				reapers_coast_region = {
					discover_country = ROOT
				}
				spoorland_area = {
					discover_country = ROOT
				}
				okhiboli_area = {
					discover_country = ROOT
				}
				greywood_area = {
					discover_country = ROOT
				}
				1045 = {
					discover_country = ROOT
				}
				1866 = {
					discover_country = ROOT
				}
				2741 = {
					discover_country = ROOT
				}
			}
		}
		
		#amadia
		else_if = {
			limit = {
				capital_scope = {
					region = amadia_region
				}
				culture_group = amadian_ruinborn_elf
			}
			amadia_region = {
				discover_country = ROOT
			}
			#Sea tiles
			1552 = {
				discover_country = ROOT
			}
			1553 = {
				discover_country = ROOT
			}
			1555 = {
				discover_country = ROOT
			}
			1556 = {
				discover_country = ROOT
			}
			#Wasteland
			2740 = {
				discover_country = ROOT
			}
			2251 = {
				discover_country = ROOT
			}
			4276 = {
				discover_country = ROOT
			}
			4322 = {
				discover_country = ROOT
			}
			#Lakes
			1657 = {
				discover_country = ROOT
			}
			1660 = {
				discover_country = ROOT
			}
		}
		
		#leechdens
		else_if = {
			limit = {
				capital_scope = {
					region = leechdens_region
				}
				OR = {
					culture_group = effelai_ruinborn_elf
					primary_culture = leechmen
				}
			}
			leechdens_region = {
				discover_country = ROOT
			}
			#Sea tiles
			leechdens_area = {
				discover_country = ROOT
			}
			#Lakes
			1916 = {
				discover_country = ROOT
			}
			1914 = {
				discover_country = ROOT
			}
			1917 = {
				discover_country = ROOT
			}
			1918 = {
				discover_country = ROOT
			}
			1661 = {
				discover_country = ROOT
			}
			1913 = {
				discover_country = ROOT
			}
			1912 = {
				discover_country = ROOT
			}
			1659 = {
				discover_country = ROOT
			}
			1915 = {
				discover_country = ROOT
			}
		}
		
		#deepwoods
		if = {
			limit = {
				OR = {
					culture = forest_goblin
					culture = wood_elf
					capital_scope = { superregion = deepwoods_superregion }
				}
			}
			deepwoods_superregion = {
				discover_country = ROOT
			}
			1782 = {
				discover_country = ROOT
			}
			1261 = {
				discover_country = ROOT
			}
			509 = {
				discover_country = ROOT
			}
		}
		
		#forbidden lands
		else_if = {
			limit = {
				capital_scope = {
					superregion = forbidden_lands_superregion
				}
			}
			forbidden_lands_superregion = {
				discover_country = ROOT
			}
			#Wasteland
			1327 = {
				discover_country = ROOT
			}
			6505 = {
				discover_country = ROOT
			}
			4133 = {
				discover_country = ROOT
			}
			4134 = {
				discover_country = ROOT
			}
			4135 = {
				discover_country = ROOT
			}
			#Sea tiles
			northern_sea_region = {
				discover_country = ROOT
			}
			1668 = {
				undiscover_country = ROOT
			}
			#Lakes
			1784 = {
				discover_country = ROOT
			}
			1894 = {
				discover_country = ROOT
			}
			5083 = {
				discover_country = ROOT
			}
		}
	}
	#Discover allies capitals
	every_ally = {
		capital_scope = {
			discover_country = ROOT
		}
	}
	# Resets prestige from being the first in the tech group to discover a province
	add_prestige = -200
	add_prestige = 100
}

setup_ai_attitude = {
	# Set everyone's attitude to neutral towards one another
	every_known_country = {
		ROOT = {
			set_ai_attitude = {
				attitude = attitude_neutral
				who = PREV
				locked = no
			}
		}
	}
}

setup_caste_estates = {
	if = {
		limit = { exists = yes has_country_flag = has_caste_estates }

		############Calculate percentage of harimari################
		# calculate what proportion of dev is harimari cultured
		set_variable = {
			which = nbHarimariMajority
			value = 0
		}
		every_owned_province = {
			if = { #Harimari Dev
				limit = { 
					OR = {
						culture = serene_harimari
						culture = royal_harimari
						culture = primal_harimari
						culture = roaming_harimari
					}
					is_core = ROOT 
					is_state = yes 
				}
				export_to_variable = {
					variable_name = nbHarimariMajority
					value = development
				}
				ROOT = {
					change_variable = {
						which = nbHarimariMajority
						which = PREV
					}
				}
			}
		}

		### Set Comparison Variables
		set_variable = {
			which = totalDev
			value = 0
		}

		every_owned_province = {
			if = { #Total Dev
				limit = {
					is_core = ROOT
					is_state = yes
				}
				export_to_variable = {
					variable_name = totalDev
					value = development						# Dev of Province
				}
				ROOT = {										#ROOT = Country
					change_variable = {
						which = totalDev
						which = PREV
					}
				}
			}
		}

		#############################
		##    Calculate %Dev of harimari Race
		#############################
		divide_variable = {
			which = nbHarimariMajority
			which = totalDev
		}

		############################################################

		################Populate Upper castes.######################
		##Add Harimari
		if = { 
			limit = {
				OR = {
					primary_culture = royal_harimari
					primary_culture = primal_harimari
					ruler_is_harimari = yes		#Harimari in charge
					overlord = { has_reform = raja_reform } #Overlord part of Raj
					has_reform = raja_reform	#Part of the Raj
				}
			}
			set_country_flag = harimari_in_uppercastes
		}
		else = {
			set_country_flag = human_in_uppercastes # If there are no Harimari, humans rule
		}
		##Add Humans
		if = {
			limit = {
				culture_is_human = yes
				ruler_is_human = yes
			}
			set_country_flag = human_in_uppercastes
		}
		else_if = {
			limit = {
				OR = {
					tag = R10 # Sarvanan
					tag = R12 # Ghatarsen
					tag = R34 # Kamapar
					tag = R05 # Tughayasa
				}
			}
			set_country_flag = human_in_uppercastes
		}
		#############################################################
		
		
		################Populate Middle castes.######################
		##Add Harimari if they inhabit 50% of the dev		
		set_variable = {
			which = PercentDevMiddleCastes
			value = 0.5			#How much Dev does the race need to have for the options to appears. 1 = 100%
		}
		if = {
			limit = {
				OR = {
					NOT = {has_country_flag = harimari_in_uppercastes} #If not in uppercastes, harimari are surely in middlecastes
					check_variable = { #If >50% of pop harimari, add to caste
						which = nbHarimariMajority
						which = PercentDevMiddleCastes #set to 50% for Middle castes
					}
				}
			}
			set_country_flag = harimari_in_middlecastes
		}

		#Add Humans
		set_country_flag = human_in_middlecastes	#Always Humans
		#############################################################
		
		
		################Populate Lower castes.#######################
		##Add Harimari if they inhabit 75% of the dev		
		set_variable = {
			which = PercentDevLowerCastes
			value = 0.75			#How much Dev does the race need to have for the options to appears. 1 = 100%
		}
		if = {
			limit = {
				OR = {
					NOT = {has_country_flag = harimari_in_uppercastes} #If not in uppercastes, harimari are surely in middlecastes
					check_variable = { #If >75% of pop harimari, add to caste
						which = nbHarimariMajority
						which = PercentDevLowerCastes #set to 75% for Lower castes
					}
				}
			}
			set_country_flag = harimari_in_lowercastes
		}
		
		#Add Humans
		set_country_flag = human_in_lowercastes	#Always Humans
		#############################################################

		
		############Initialize Caste Fluidity################
		set_variable = { which = casteFluidityVar value = 15 }
	}
}
